[{
      "first_name": "Affan",
      "last_name": "amalik",
      "email": "affan@malik.net"
    }, {
      "first_name": "test user",
      "last_name": "hello",
      "email": "test@hello.c"
    },{
      "first_name": "Jose",
      "last_name": "Mourinho",
      "email": "jose@specialone.me"
    },{
      "first_name": "Zlatan",
      "last_name": "Ibrahimovich",
      "email": "zlatan@nothuman.me"
    }
]